-------------------------------------------------------------------------------
Test set: unam.utict.cuentacaracteres.CuentaCaracteresTest
-------------------------------------------------------------------------------
Tests run: 1, Failures: 1, Errors: 0, Skipped: 0, Time elapsed: 0.037 sec <<< FAILURE!
unam.utict.cuentacaracteres.CuentaCaracteresTest.testContar()  Time elapsed: 0.035 sec  <<< FAILURE!
org.opentest4j.AssertionFailedError: array lengths differ, expected: <10> but was: <3>
	at org.junit.jupiter.api.AssertionUtils.fail(AssertionUtils.java:39)
	at org.junit.jupiter.api.AssertArrayEquals.assertArraysHaveSameLength(AssertArrayEquals.java:423)
	at org.junit.jupiter.api.AssertArrayEquals.assertArrayEquals(AssertArrayEquals.java:338)
	at org.junit.jupiter.api.AssertArrayEquals.assertArrayEquals(AssertArrayEquals.java:162)
	at org.junit.jupiter.api.AssertArrayEquals.assertArrayEquals(AssertArrayEquals.java:158)
	at org.junit.jupiter.api.Assertions.assertArrayEquals(Assertions.java:1435)
	at unam.utict.cuentacaracteres.CuentaCaracteresTest.testContar(CuentaCaracteresTest.java:56)

