-------------------------------------------------------------------------------
Test set: unam.utict.interseccion.InterseccionTest
-------------------------------------------------------------------------------
Tests run: 1, Failures: 1, Errors: 0, Skipped: 0, Time elapsed: 0.019 sec <<< FAILURE!
unam.utict.interseccion.InterseccionTest.testEncontrar()  Time elapsed: 0.018 sec  <<< FAILURE!
org.opentest4j.AssertionFailedError: array lengths differ, expected: <4> but was: <5>
	at org.junit.jupiter.api.AssertionUtils.fail(AssertionUtils.java:39)
	at org.junit.jupiter.api.AssertArrayEquals.assertArraysHaveSameLength(AssertArrayEquals.java:423)
	at org.junit.jupiter.api.AssertArrayEquals.assertArrayEquals(AssertArrayEquals.java:240)
	at org.junit.jupiter.api.AssertArrayEquals.assertArrayEquals(AssertArrayEquals.java:90)
	at org.junit.jupiter.api.AssertArrayEquals.assertArrayEquals(AssertArrayEquals.java:86)
	at org.junit.jupiter.api.Assertions.assertArrayEquals(Assertions.java:1260)
	at unam.utict.interseccion.InterseccionTest.testEncontrar(InterseccionTest.java:51)

